{
  "tools": [
    {
      "type": "logo",
      "caption": "Logo Element"
    },
    {
      "type": "menu",
      "caption": "Menu Element"
    },
    {
      "type": "row",
      "caption": "Row Element"
    },
    {
      "type": "social-media",
      "caption": "Social Media"
    }
  ]
}
